Place,Name,BirthYear,Country,BodyweightKg,Squat1Kg,Squat2Kg,Squat3Kg,Best3SquatKg,Bench1Kg,Bench2Kg,Bench3Kg,Best3BenchKg,Deadlift1Kg,Deadlift2Kg,Deadlift3Kg,Best3DeadliftKg,TotalKg,WeightClassKg,Division,Event,Sex,Equipment
1,Eric Kupperstein,1966,USA,58.75,205,-225,-230,205,115,125,130,130,220,-242.5,-255.5,220,555,59,Masters 1,SBD,M,Single-ply
1,Lewis Noppers,1970,Canada,65.91,227.5,240,-247.5,240,145,150,152.5,152.5,255,267.5,,267.5,660,66,Masters 1,SBD,M,Single-ply
2,Jacob Carrasco-Gonsales,1966,Peru,65.29,220,230,235,235,140,145,-147.5,145,230,-245,-245,230,610,66,Masters 1,SBD,M,Single-ply
3,Karel Ruso,1965,Czechia,65.88,235,252.5,260,260,97.5,102.5,105,105,210,232.5,240,240,605,66,Masters 1,SBD,M,Single-ply
4,Oscar Mejía,1964,Mexico,65.48,-210,210,-217.5,210,115,-125,-125,115,215,-220,-220,215,540,66,Masters 1,SBD,M,Single-ply
1,Sami Siltala,1972,Finland,73.28,220,240,-245,240,150,160,165,165,220,-255,255,255,660,74,Masters 1,SBD,M,Single-ply
2,James Tyras,1970,Australia,72.92,155,-175,-180,155,-135,135,145,145,170,190,200,200,500,74,Masters 1,SBD,M,Single-ply
DQ,Nobuyuki Hamada,1969,Japan,73.61,-280,-280,-280,,185,195,-200,195,-230,230,245,245,,74,Masters 1,SBD,M,Single-ply
DQ,Darren Matsumoto,1964,USA,73.67,257.5,270,-280,270,-207.5,-207.5,-207.5,,227.5,237.5,247.5,247.5,,74,Masters 1,SBD,M,Single-ply
1,David Decouleur,1972,France,82.65,275,285,295,295,170,180,185,185,240,260,-275,260,740,83,Masters 1,SBD,M,Single-ply
2,John Dalessio,1968,USA,82.26,260,-272.5,-272.5,260,177.5,182.5,187.5,187.5,247.5,260,267.5,267.5,715,83,Masters 1,SBD,M,Single-ply
3,Alimbek Rakhimov,1966,Kyrgyzstan,81.5,250,262.5,-272.5,262.5,-177.5,177.5,185,185,250,-252.5,-265,250,697.5,83,Masters 1,SBD,M,Single-ply
4,Sandro D'Angelo,1964,Canada,81.11,240,-245,245,245,155,157.5,160,160,252.5,262.5,265,265,670,83,Masters 1,SBD,M,Single-ply
5,Rami Huovinen,1964,Finland,82.81,230,-242.5,-242.5,230,-135,135,145,145,230,240,-245,240,615,83,Masters 1,SBD,M,Single-ply
6,Andrew Bryant,1966,Canada,82.73,230,-240,-245,230,60,-65,-65,60,185,-205,-205,185,475,83,Masters 1,SBD,M,Single-ply
DQ,Mitsuhisa Ogawa,1971,Japan,82.34,-230,-230,-230,,170,185,-190,185,210,220,-230,220,,83,Masters 1,SBD,M,Single-ply
1,Dave Walters,1971,Canada,90.95,295,-307.5,307.5,307.5,255,265,270,270,260,-275,-275,260,837.5,93,Masters 1,SBD,M,Single-ply
2,Mario Schnurr,1966,Germany,92.86,310,-325,330,330,182.5,-192.5,-192.5,182.5,290,-307.5,-307.5,290,802.5,93,Masters 1,SBD,M,Single-ply
3,Pete Grohoski,1970,USA,92.89,247.5,255,262.5,262.5,245,252.5,257.5,257.5,215,227.5,240,240,760,93,Masters 1,SBD,M,Single-ply
4,Mike Jarrett,1965,USA,89.6,270,-292.5,292.5,292.5,172.5,-187.5,-187.5,172.5,250,270,-295,270,735,93,Masters 1,SBD,M,Single-ply
5,Petteri Hakkarainen,1967,Finland,92.18,240,252.5,,252.5,190,195,-205,195,252.5,-260,267.5,267.5,715,93,Masters 1,SBD,M,Single-ply
6,François Kalic,1965,France,92.41,250,265,272.5,272.5,175,182.5,-195,182.5,240,260,-272.5,260,715,93,Masters 1,SBD,M,Single-ply
7,Julian Perry,1966,New Zealand,92.64,215,230,-235,230,-75,75,-100,75,220,235,-240,235,540,93,Masters 1,SBD,M,Single-ply
1,Ildefonso Pardo,1973,Mexico,102.12,295,310,320,320,237.5,247.5,-252.5,247.5,260,-270,-270,260,827.5,105,Masters 1,SBD,M,Single-ply
2,Joe Oliveira,1969,Canada,104.32,297.5,307.5,312.5,312.5,215,220,-225,220,272.5,285,-292.5,285,817.5,105,Masters 1,SBD,M,Single-ply
3,Reiner Heinrich,1971,Germany,104.09,295,-307.5,307.5,307.5,180,195,202.5,202.5,285,297.5,302.5,302.5,812.5,105,Masters 1,SBD,M,Single-ply
4,Jan-Roger Johansen,1967,Norway,101.53,325,342.5,-352.5,342.5,187.5,-192.5,-192.5,187.5,280,-287.5,-287.5,280,810,105,Masters 1,SBD,M,Single-ply
5,Kim Dahl Hansen,1971,Denmark,104.19,280,297.5,310,310,200,-207.5,-207.5,200,275,297.5,-302.5,297.5,807.5,105,Masters 1,SBD,M,Single-ply
6,Brad Kennedy,1973,Canada,101.16,-285,305,-315,305,235,-245,-245,235,-265,-265,265,265,805,105,Masters 1,SBD,M,Single-ply
7,Håkan Persson,1967,Sweden,104.95,-295,295,-315,295,-205,-205,205,205,295,-307.5,-315,295,795,105,Masters 1,SBD,M,Single-ply
8,Antonio González,1971,Puerto Rico,93.67,300,307.5,312.5,312.5,187.5,-197.5,-202.5,187.5,265,-275,-282.5,265,765,105,Masters 1,SBD,M,Single-ply
9,Jorncy Page,1972,South Africa,104.83,262.5,275,280,280,192.5,-197.5,197.5,197.5,262.5,282.5,-295,282.5,760,105,Masters 1,SBD,M,Single-ply
10,Vince Thomas,1968,Australia,102.26,240,265,-275,265,-230,230,-240,230,230,250,-257.5,250,745,105,Masters 1,SBD,M,Single-ply
11,Wilson Martinez,1965,USA,103.72,265,-287.5,-287.5,265,175,185,-190,185,260,-280,-280,260,710,105,Masters 1,SBD,M,Single-ply
12,Thomas Ziegler,1967,Germany,103.65,-237.5,237.5,247.5,247.5,-190,190,-200,190,240,250,-262.5,250,687.5,105,Masters 1,SBD,M,Single-ply
1,Sorin Cazacu,1973,Romania,118.73,350,360,365,365,250,260,-267.5,260,265,275,-280,275,900,120,Masters 1,SBD,M,Single-ply
2,Claudemiro Nascimento,1970,Brazil,119.22,350,360,-365,360,180,190,-200,190,-310,310,325,325,875,120,Masters 1,SBD,M,Single-ply
3,Jan Pinc,1973,Czechia,117.22,290,310,330,330,-230,230,240,240,270,285,290,290,860,120,Masters 1,SBD,M,Single-ply
4,Michael Kalter,1972,Netherlands,113.57,300,322.5,-335,322.5,202.5,212.5,,212.5,305,317.5,-325,317.5,852.5,120,Masters 1,SBD,M,Single-ply
5,Petr Lahoda,1970,Czechia,116.56,300,-315,315,315,235,245,255,255,230,-250,250,250,820,120,Masters 1,SBD,M,Single-ply
6,Jens Jepsen,1970,Denmark,117.25,280,-295,302.5,302.5,215,225,-232.5,225,250,265,-272.5,265,792.5,120,Masters 1,SBD,M,Single-ply
7,Phil Middleton,1972,New Zealand,109.36,260,277.5,295,295,182.5,190,200,200,255,280,-290,280,775,120,Masters 1,SBD,M,Single-ply
8,Philippe Plancq,1969,France,118.11,240,255,265,265,-220,220,-227.5,220,200,220,252.5,252.5,737.5,120,Masters 1,SBD,M,Single-ply
9,Julio Conrado,1965,Brazil,118.33,270,290,305,305,-155,155,-170,155,190,-210,-210,190,650,120,Masters 1,SBD,M,Single-ply
1,Francis Rousseau,1970,Canada,123.31,340,-355,355,355,-265,275,282.5,282.5,285,-295,-295,285,922.5,120+,Masters 1,SBD,M,Single-ply
2,Gary Allen,1964,USA,148.59,312.5,335,-345,335,282.5,290,-292.5,290,265,292.5,-307.5,292.5,917.5,120+,Masters 1,SBD,M,Single-ply
3,Steven Davenport,1971,USA,132.76,322.5,340,-350,340,237.5,-252.5,252.5,252.5,275,320,-335,320,912.5,120+,Masters 1,SBD,M,Single-ply
4,Jaroslav Šoukal,1972,Czechia,151.33,290,310,330,330,275,285,292.5,292.5,245,267.5,-292.5,267.5,890,120+,Masters 1,SBD,M,Single-ply
5,Morten Sørig,1969,Denmark,134.44,345,360,-365,360,-247.5,255,-262.5,255,225,255,-275,255,870,120+,Masters 1,SBD,M,Single-ply
6,Wim Wamsteeker,1969,Netherlands,128.62,310,325,332.5,332.5,200,207.5,-212.5,207.5,250,260,-272.5,260,800,120+,Masters 1,SBD,M,Single-ply
7,Richard Hocquard,1968,France,123.29,280,-307.5,307.5,307.5,170,-192.5,-192.5,170,240,255,-260,255,732.5,120+,Masters 1,SBD,M,Single-ply
DQ,Georg Haug,1965,Germany,134.4,-235,-250,-250,,205,215,-240,215,235,250,255,255,,120+,Masters 1,SBD,M,Single-ply
DQ,Eumenes Souza,1972,Brazil,157.36,-360,-360,-370,,240,250,-260,250,280,295,-322.5,295,,120+,Masters 1,SBD,M,Single-ply
1,John Corsello,1958,USA,58.74,132.5,140,150,150,105,115,117.5,117.5,142.5,162.5,-165,162.5,430,59,Masters 2,SBD,M,Single-ply
1,Jan Roytvand,1963,Norway,65.66,225,235,240,240,125,-130,130,130,205,215,217.5,217.5,587.5,66,Masters 2,SBD,M,Single-ply
2,Cruz Rodríguez,1959,Puerto Rico,65.81,210,217.5,220,220,145,152.5,157.5,157.5,185,-195,195,195,572.5,66,Masters 2,SBD,M,Single-ply
3,Hironori Niwa,1961,Japan,65.39,-200,200,210,210,120,125,130,130,220,230,-247.5,230,570,66,Masters 2,SBD,M,Single-ply
4,Rick Esposito,1958,USA,64.59,182.5,187.5,190,190,-122.5,122.5,125,125,220,-230,-232.5,220,535,66,Masters 2,SBD,M,Single-ply
5,John Myers,1956,Australia,65.73,180,200,-210,200,95,105,-110,105,200,222.5,-225,222.5,527.5,66,Masters 2,SBD,M,Single-ply
6,Patrick Blard,1954,France,65.93,172.5,177.5,182.5,182.5,102.5,107.5,-112.5,107.5,-195,200,-210,200,490,66,Masters 2,SBD,M,Single-ply
1,Greg Page,1963,USA,73.89,257.5,267.5,-275,267.5,-165,165,-175,165,250,265,-275,265,697.5,74,Masters 2,SBD,M,Single-ply
2,Winston Stoby,1959,Guyana,72.69,235,250,-260,250,-130,130,-140,130,260,277.5,-280,277.5,657.5,74,Masters 2,SBD,M,Single-ply
3,Koichi Taniguchi,1960,Japan,73.35,210,215,-220,215,152.5,157.5,162.5,162.5,220,230,-240,230,607.5,74,Masters 2,SBD,M,Single-ply
4,Roland Asmus,1960,Germany,72.22,220,227.5,235,235,-135,135,-140,135,220,230,-237.5,230,600,74,Masters 2,SBD,M,Single-ply
5,Allen Ottolangui,1960,UK,73.77,-215,215,230,230,132.5,-137.5,-137.5,132.5,215,-230,-230,215,577.5,74,Masters 2,SBD,M,Single-ply
6,Jan Sahlgren,1960,Denmark,73.94,200,210,215,215,140,145,-155,145,190,205,-207.5,205,565,74,Masters 2,SBD,M,Single-ply
7,Tomas Berg,1960,Sweden,73.04,215,230,-237.5,230,115,120,-127.5,120,200,-215,-215,200,550,74,Masters 2,SBD,M,Single-ply
8,Pascal Piffard,1962,France,71.78,180,190,-200,190,130,135,137.5,137.5,190,200,210,210,537.5,74,Masters 2,SBD,M,Single-ply
9,Akinori Yasukura,1958,Japan,73.22,190,-200,205,205,135,140,142.5,142.5,180,-190,-190,180,527.5,74,Masters 2,SBD,M,Single-ply
1,Rolf Hampel,1961,Germany,81.64,275,295,305,305,152.5,155,157.5,157.5,255,275,-285,275,737.5,83,Masters 2,SBD,M,Single-ply
2,Russell Clark,1961,USA,82.81,237.5,245,-255,245,-157.5,157.5,167.5,167.5,245,265,-272.5,265,677.5,83,Masters 2,SBD,M,Single-ply
3,Makoto Yamaguchi,1963,Japan,82.45,-270,270,-285,270,160,165,-170,165,-235,240,-245,240,675,83,Masters 2,SBD,M,Single-ply
4,Dominique Carlot,1960,France,82.97,-220,220,-235,220,165,-170,-170,165,-247.5,255,-260,255,640,83,Masters 2,SBD,M,Single-ply
5,James Abraham,1961,Canada,82.26,210,225,230,230,150,157.5,-162.5,157.5,232.5,250,-257.5,250,637.5,83,Masters 2,SBD,M,Single-ply
6,Erik Rasmussen,1962,Denmark,81.55,225,237.5,-245,237.5,160,165,170,170,175,190,,190,597.5,83,Masters 2,SBD,M,Single-ply
7,Antero Juntunen,1954,Finland,82.66,200,205,210,210,100,105,-107.5,105,230,247.5,255,255,570,83,Masters 2,SBD,M,Single-ply
8,Chris Robb,1959,Canada,81.07,180,-200,200,200,77.5,85,-87.5,85,160,170,180,180,465,83,Masters 2,SBD,M,Single-ply
DQ,Gemel Boughamdouz,1963,France,82.47,235,-240,-240,235,-200,-200,-200,,,,,,,83,Masters 2,SBD,M,Single-ply
1,David Ricks,1959,USA,91.6,330,-345,-345,330,215,225,-236,225,287.5,305,328,328,883,93,Masters 2,SBD,M,Single-ply
2,Edvard Jensen Jan,1959,Norway,92.7,260,275,285,285,172.5,180,185,185,240,250,260,260,730,93,Masters 2,SBD,M,Single-ply
3,Steve Cumming,1963,UK,92.5,240,260,-280,260,182.5,192.5,200,200,240,260,-270,260,720,93,Masters 2,SBD,M,Single-ply
4,Michal Sekot,1961,Czechia,92.31,260,-272.5,272.5,272.5,-187.5,187.5,-190,187.5,230,245,-260,245,705,93,Masters 2,SBD,M,Single-ply
5,Jose Cabrera,1963,Puerto Rico,92.3,257.5,265,-270,265,155,162.5,-165,162.5,262.5,272.5,-277.5,272.5,700,93,Masters 2,SBD,M,Single-ply
6,Seppo Norpila,1963,Finland,92.9,215,220,225,225,190,192.5,-195,192.5,230,245,-257.5,245,662.5,93,Masters 2,SBD,M,Single-ply
7,Régis Gautier,1956,France,83.25,-200,205,-210,205,140,145,-147.5,145,245,255,260,260,610,93,Masters 2,SBD,M,Single-ply
8,Stephen King #1,1962,New Zealand,84.18,225,250,-275,250,115,120,125,125,200,220,-225,220,595,93,Masters 2,SBD,M,Single-ply
1,Jari Niskanen,1963,Finland,104.5,270,280,-290,280,190,197.5,202.5,202.5,260,270,275,275,757.5,105,Masters 2,SBD,M,Single-ply
2,Paul Gidney,1963,Canada,102.55,245,252.5,257.5,257.5,172.5,180,-182.5,180,280,295,-320,295,732.5,105,Masters 2,SBD,M,Single-ply
3,Tapani Laitala,1963,Finland,104.37,257.5,270,,270,-187.5,190,-200,190,240,250,270,270,730,105,Masters 2,SBD,M,Single-ply
4,Julian Ulvang,1962,USA,94.3,200,220,250,250,205,215,-225,215,200,235,257.5,257.5,722.5,105,Masters 2,SBD,M,Single-ply
DQ,Rik Priester,1955,Netherlands,103.99,260,272.5,,272.5,-180,-187.5,-187.5,,-210,225,240,240,,105,Masters 2,SBD,M,Single-ply
1,Zoltán Kanát,1962,Czechia,114.31,310,330,340,340,240,-260,260,260,280,-295,295,295,895,120,Masters 2,SBD,M,Single-ply
2,Ron Strong,1958,Canada,118.19,295,-310,-310,295,175,-182.5,-182.5,175,300,312.5,-320,312.5,782.5,120,Masters 2,SBD,M,Single-ply
3,Harri Hagfors,1961,Finland,105.03,245,265,272.5,272.5,180,195,202.5,202.5,267.5,-280,302.5,302.5,777.5,120,Masters 2,SBD,M,Single-ply
4,Jon Briggs,1961,USA,119.02,272.5,-290,-290,272.5,227.5,237.5,-252.5,237.5,267.5,-285,-285,267.5,777.5,120,Masters 2,SBD,M,Single-ply
1,Daniel Gaudreau,1960,USA,154.06,330,345,350,350,282.5,292.5,-303,292.5,250,280,282.5,282.5,925,120+,Masters 2,SBD,M,Single-ply
2,Sergey Kulbizhekov,1963,Russia,130.92,310,322.5,-330,322.5,190,-200,200,200,245,-255,-255,245,767.5,120+,Masters 2,SBD,M,Single-ply
3,Mike Armstrong,1955,Canada,133.45,200,220,230,230,-210,-215,215,215,230,247.5,257.5,257.5,702.5,120+,Masters 2,SBD,M,Single-ply
4,Hugo Velásquez,1959,Costa Rica,124.3,175,-202.5,-205,175,175,197.5,-205,197.5,175,187.5,-205,187.5,560,120+,Masters 2,SBD,M,Single-ply
DQ,Michael Knott,1959,Canada,143.32,-195,-195,-205,,-182.5,-182.5,182.5,182.5,175,-185,-185,175,,120+,Masters 2,SBD,M,Single-ply
1,Hidetoshi Marumoto,1947,Japan,58.78,180,190,-195,190,95,105,110,110,170,180,185,185,485,59,Masters 3,SBD,M,Single-ply
2,Him Wong Kung,1947,Hong Kong,52.53,115,-120,120,120,90,92.5,95,95,135,145,-150,145,360,59,Masters 3,SBD,M,Single-ply
1,Joseph Marksteiner,1953,USA,65.57,177.5,187.5,192.5,192.5,102.5,-112.5,112.5,112.5,182.5,190,200,200,505,66,Masters 3,SBD,M,Single-ply
2,Jeffrey Jacobs,1947,USA,65.59,177.5,185,-192.5,185,92.5,100,107.5,107.5,192.5,205,-215,205,497.5,66,Masters 3,SBD,M,Single-ply
3,Alain Cuvelier,1953,France,65.5,172.5,182.5,-190,182.5,100,110,-117.5,110,190,-202.5,-205,190,482.5,66,Masters 3,SBD,M,Single-ply
1,Robert Yamasaki,1952,USA,73.46,210,222.5,235,235,127.5,137.5,-142.5,137.5,215,-235,238,238,610.5,74,Masters 3,SBD,M,Single-ply
2,Max Bristow,1944,Australia,66.79,150,-160,-160,150,80,85,-90,85,210,222.5,-230,222.5,457.5,74,Masters 3,SBD,M,Single-ply
3,Jacques Beauverger,1946,France,72.48,145,155,-160,155,77.5,82.5,-87.5,82.5,180,190,-202.5,190,427.5,74,Masters 3,SBD,M,Single-ply
1,Ron Delaney,1951,Canada,82.47,220,-230,232.5,232.5,140,145,-147.5,145,255,-272.5,-272.5,255,632.5,83,Masters 3,SBD,M,Single-ply
2,Gregory Kleyn,1951,USA,81.22,210,-222.5,222.5,222.5,100,-110,-110,100,-240,-240,240,240,562.5,83,Masters 3,SBD,M,Single-ply
3,Jean-François Vinot,1951,France,79.89,170,185,200,200,100,110,115,115,220,237.5,242.5,242.5,557.5,83,Masters 3,SBD,M,Single-ply
4,Tony McKenna,1952,New Zealand,82.46,190,205,-212.5,205,125,135,140,140,200,-210,-210,200,545,83,Masters 3,SBD,M,Single-ply
5,Michel Dudziak,1948,France,81.76,175,180,187.5,187.5,110,-117.5,117.5,117.5,215,222.5,227.5,227.5,532.5,83,Masters 3,SBD,M,Single-ply
6,Stan Goss,1953,Canada,82.42,160,182.5,190,190,105,115,-130,115,185,205,-225,205,510,83,Masters 3,SBD,M,Single-ply
1,Boucif Mokadem,1951,France,90.65,-240,240,245,245,152.5,-157.5,-160,152.5,240,247.5,255,255,652.5,93,Masters 3,SBD,M,Single-ply
2,Lutz Schuricht,1951,Germany,90.05,230,242.5,-250,242.5,-165,165,-170,165,220,232.5,242.5,242.5,650,93,Masters 3,SBD,M,Single-ply
3,Gary Edwards,1953,USA,91.95,-220,220,-237.5,220,165,170,180,180,230,242.5,-252.5,242.5,642.5,93,Masters 3,SBD,M,Single-ply
4,Kari Mattila,1945,Sweden,91.76,190,-205,210,210,130,137.5,142.5,142.5,230,-240,-242.5,230,582.5,93,Masters 3,SBD,M,Single-ply
5,Louis Lévesque,1953,Canada,83.66,185,195,-200,195,115,122.5,-127.5,122.5,175,185,-190,185,502.5,93,Masters 3,SBD,M,Single-ply
1,Rolf Stenberg,1953,Norway,101.05,245,-255,255,255,175,185,-190,185,250,260,-267.5,260,700,105,Masters 3,SBD,M,Single-ply
2,Christian Delpieu,1951,France,94.57,230,240,245,245,130,140,-145,140,230,245,250,250,635,105,Masters 3,SBD,M,Single-ply
3,Gordon Chenkie,1952,Canada,93.66,220,-230,230,230,145,150,155,155,220,230,-247.5,230,615,105,Masters 3,SBD,M,Single-ply
4,Jean-Paul Belmas,1949,France,100.33,205,222.5,-232.5,222.5,115,120,-125,120,222.5,232.5,237.5,237.5,580,105,Masters 3,SBD,M,Single-ply
5,Miroslav Koprnicky,1951,Canada,93.16,192.5,-202.5,202.5,202.5,-147.5,152.5,155,155,200,210,220,220,577.5,105,Masters 3,SBD,M,Single-ply
6,Tapani Puhakka,1944,Finland,93.33,100,110,-120,110,110,115,120,120,150,170,180,180,410,105,Masters 3,SBD,M,Single-ply
1,Bill Sindelar,1951,USA,114.3,-237.5,237.5,252.5,252.5,177.5,185,190,190,235,245,252.5,252.5,695,120,Masters 3,SBD,M,Single-ply
DQ,Crayton Taylor,1946,USA,115.88,-145,-145,-150,,102.5,110,115,115,-182.5,182.5,200,200,,120,Masters 3,SBD,M,Single-ply
1,Steven Green,1951,USA,144.04,260,280,-290,280,215,-230,-230,215,245,260,275,275,770,120+,Masters 3,SBD,M,Single-ply
2,Göran Andersson,1953,Sweden,127.89,250,260,-270,260,220,-230,-230,220,220,-230,-260,220,700,120+,Masters 3,SBD,M,Single-ply
1,Shinjun Oshiro,1943,Japan,56.74,145,155,-160,155,105,112.5,117.5,117.5,155,-165,-165,155,427.5,59,Masters 4,SBD,M,Single-ply
2,Bent Hansen,1941,Denmark,58.21,120,127.5,-135,127.5,77.5,80,-82.5,80,150,157.5,-170.5,157.5,365,59,Masters 4,SBD,M,Single-ply
3,Kim-Won Pok,1940,Hong Kong,52.47,102.5,107.5,-117.5,107.5,67.5,72.5,-75,72.5,125,132.5,137.5,137.5,317.5,59,Masters 4,SBD,M,Single-ply
1,Torsten Ruotsala,1943,Finland,65.33,142.5,152.5,155,155,75,80,-85,80,187.5,195.5,196.5,196.5,431.5,66,Masters 4,SBD,M,Single-ply
2,Bruce Park,1937,New Zealand,63.98,130,140,145,145,80,85,90,90,170,180,196,196,431,66,Masters 4,SBD,M,Single-ply
3,Jules Pellegrino,1943,USA,65.21,137.5,147.5,155,155,125,-127.5,127.5,127.5,137.5,147.5,-150,147.5,430,66,Masters 4,SBD,M,Single-ply
4,Sergey Pustovalov,1940,Russia,64.07,115,125,-142.5,125,60,65,-67.5,65,145,155,162.5,162.5,352.5,66,Masters 4,SBD,M,Single-ply
1,Mitsuru Osawa,1941,Japan,72.06,175,-190,-190,175,110,115,-120,115,170,180,-185,180,470,74,Masters 4,SBD,M,Single-ply
2,Tetsuya Kinoshita,1942,Japan,72.82,160,-170,-180,160,90,100,-105,100,160,170,-175,170,430,74,Masters 4,SBD,M,Single-ply
1,Mikhail Zhuravlev,1943,Russia,79.18,195,205,212.5,212.5,115,-120,-125,115,210,-222.5,222.5,222.5,550,83,Masters 4,SBD,M,Single-ply
2,Patraic Currey,1942,USA,80.12,152.5,160,170,170,140,-147.5,147.5,147.5,185,200,-222.5,200,517.5,83,Masters 4,SBD,M,Single-ply
3,Ernie Parkes,1942,UK,80.66,155,165,170,170,100,107.5,110,110,200,212.5,220.5,220.5,500.5,83,Masters 4,SBD,M,Single-ply
4,Daniel Reybrouck,1942,Belgium,81.35,110,-130,130,130,137.5,142.5,-153.5,142.5,120,140,152.5,152.5,425,83,Masters 4,SBD,M,Single-ply
5,Thomas Kalen,1943,USA,81,145,155,165,165,100,-110,-110,100,137.5,145,-160,145,410,83,Masters 4,SBD,M,Single-ply
1,Peer Bjaaland,1942,Norway,90.26,145,-152.5,-155,145,135,145,-150,145,175,185,187.5,187.5,477.5,93,Masters 4,SBD,M,Single-ply
2,Jack Taylor #1,1941,Canada,90.54,145,170,180,180,115,-117.5,117.5,117.5,160,170,180,180,477.5,93,Masters 4,SBD,M,Single-ply
3,Tom O'Keefe,1935,USA,90.19,150,157.5,170,170,105,-110,-110,105,160,172.5,182.5,182.5,457.5,93,Masters 4,SBD,M,Single-ply
1,Bill Helmich,1942,USA,104.48,177.5,187.5,195,195,135,145,155,155,220,235,253,253,603,105,Masters 4,SBD,M,Single-ply
2,Eldon Williamson,1943,USA,98.07,185,200,217.5,217.5,142.5,-150,-150,142.5,200,212.5,-220,212.5,572.5,105,Masters 4,SBD,M,Single-ply
1,Thomas Arrington,1939,USA,115.3,165,185,195,195,130,140,145,145,175,192.5,-205,192.5,532.5,120,Masters 4,SBD,M,Single-ply
1,Raimo Sandelin,1940,Finland,121.6,105,115,,115,100,-130,-130,100,130,150,160,160,375,120+,Masters 4,SBD,M,Single-ply
1,Nathalie Feraud,1967,France,46.19,-117.5,117.5,127.5,127.5,80,-87.5,-90,80,132.5,-142.5,142.5,142.5,350,47,Masters 1,SBD,F,Single-ply
2,Elisabeth Barry,1973,South Africa,46.63,-100,100,-110,100,42.5,47.5,50,50,115,122.5,-127.5,122.5,272.5,47,Masters 1,SBD,F,Single-ply
1,Suzanne Hartwig-Gary,1968,USA,51.57,157.5,167.5,-176.5,167.5,87.5,92.5,-95,92.5,152.5,162.5,167.5,167.5,427.5,52,Masters 1,SBD,F,Single-ply
2,Lee-Anne Dwarte,1966,Australia,48.5,117.5,125,-132.5,125,65,70,-72.5,70,140,150,157.5,157.5,352.5,52,Masters 1,SBD,F,Single-ply
1,Eva Buxbom,1969,Denmark,56.9,-160,160,-167.5,160,85,-90,90,90,165,175,-180,175,425,57,Masters 1,SBD,F,Single-ply
2,Tamami Yamada,1964,Japan,55.24,105,110,-117.5,110,60,62.5,65,65,115,120,-125,120,295,57,Masters 1,SBD,F,Single-ply
3,Samantha Thorogood,1971,Australia,54.11,100,102.5,-105,102.5,45,50,-52.5,50,120,125,127.5,127.5,280,57,Masters 1,SBD,F,Single-ply
1,Jennifer Thompson #1,1973,USA,61.51,130,140,142.5,142.5,125,135,137.5,137.5,165,190,-200,190,470,63,Masters 1,SBD,F,Raw
2,Isabelle Iliev,1967,France,61.78,145,155,-165,155,120,-125,-125,120,160,170,-175,170,445,63,Masters 1,SBD,F,Single-ply
3,Jennifer Rey-Gaudreau,1971,USA,61.53,165,172.5,-177.5,172.5,95,100,-105,100,-162.5,-162.5,162.5,162.5,435,63,Masters 1,SBD,F,Single-ply
4,Anita Stavik,1965,Norway,62.09,-150,-155,160,160,65,70,-72.5,70,152.5,162.5,-165,162.5,392.5,63,Masters 1,SBD,F,Single-ply
1,Tatiana Zubkova,1967,Russia,68.1,170,185,192.5,192.5,-90,90,97.5,97.5,200,210,217.5,217.5,507.5,72,Masters 1,SBD,F,Single-ply
2,Rhonda Clark,1965,USA,71.9,152.5,160,-170,160,70,77.5,85,85,187.5,197.5,-210,197.5,442.5,72,Masters 1,SBD,F,Single-ply
3,Colleen Hansford,1968,USA,70.15,162.5,-167.5,-167.5,162.5,90,95,-97.5,95,152.5,-155,155,155,412.5,72,Masters 1,SBD,F,Single-ply
4,Judimeire A. de Lago,1967,Brazil,70.71,150,160,165,165,80,85,90,90,150,-162.5,-162.5,150,405,72,Masters 1,SBD,F,Single-ply
5,Michelle De Sousa,1966,South Africa,68.03,142.5,155,-165,155,70,77.5,80,80,165,-177.5,-177.5,165,400,72,Masters 1,SBD,F,Single-ply
6,Sybille Hampel,1967,Germany,71.16,150,160,-170,160,77.5,80,82.5,82.5,145,152.5,-155,152.5,395,72,Masters 1,SBD,F,Single-ply
7,Serena Perry,1965,New Zealand,70.62,130,137.5,142.5,142.5,90,95,97.5,97.5,132.5,-145,-145,132.5,372.5,72,Masters 1,SBD,F,Single-ply
1,Laura Styrlund,1964,USA,81.94,155,165,172.5,172.5,110,120,-125,120,170,-175,175,175,467.5,84,Masters 1,SBD,F,Single-ply
2,Lisa Nigh,1968,Canada,78.54,142.5,152.5,162.5,162.5,80,92.5,-100,92.5,172.5,177.5,-182.5,177.5,432.5,84,Masters 1,SBD,F,Single-ply
3,Galina Tcukanova,1964,Russia,76.33,110,120,-130,120,80,-85,-85,80,130,140,150,150,350,84,Masters 1,SBD,F,Single-ply
1,Katariina Nokua,1973,Finland,100.8,207.5,-222.5,-222.5,207.5,140,-147.5,147.5,147.5,185,-195,195,195,550,84+,Masters 1,SBD,F,Single-ply
2,Erin Denton,1973,Canada,97.16,162.5,170,177.5,177.5,110,115,122.5,122.5,135,145,-150,145,445,84+,Masters 1,SBD,F,Single-ply
1,Pranee Pascoe,1958,Australia,46.43,117.5,-122.5,-122.5,117.5,62.5,65,-67.5,65,130,135,-137.5,135,317.5,47,Masters 2,SBD,F,Single-ply
2,Ann Leverett,1954,USA,45.86,-105,105,-110,105,65,70,72.5,72.5,122.5,-127.5,130,130,307.5,47,Masters 2,SBD,F,Single-ply
3,Sylviane Bechar,1959,France,42.73,-110,110,-115,110,70,72.5,-75,72.5,122.5,-127.5,-127.5,122.5,305,47,Masters 2,SBD,F,Single-ply
4,Kimberly Ryman,1962,USA,46.73,95,102.5,-105,102.5,50,55,57.5,57.5,122.5,132.5,137.5,137.5,297.5,47,Masters 2,SBD,F,Single-ply
DQ,Mira Slapinski,1958,Canada,44.92,85,-92.5,102.5,102.5,-40,-40,-40,,95,107.5,-117.5,107.5,,47,Masters 2,SBD,F,Single-ply
1,Jenny Hunter,1958,UK,51.82,110,115,120,120,72.5,77.5,-82.5,77.5,150,160,,160,357.5,52,Masters 2,SBD,F,Single-ply
2,Lucienne Bonnet Arnal,1957,France,51.59,87.5,-92.5,92.5,92.5,57.5,60,-62.5,60,105,110,112.5,112.5,265,52,Masters 2,SBD,F,Single-ply
3,Martine Roche,1956,France,51.38,82.5,87.5,-92.5,87.5,-80,80,82.5,82.5,82.5,87.5,92.5,92.5,262.5,52,Masters 2,SBD,F,Single-ply
1,Lynne Homan,1962,USA,56.53,112.5,122.5,-135,122.5,87.5,92.5,95,95,-137.5,142.5,157.5,157.5,375,57,Masters 2,SBD,F,Single-ply
2,Christine Wender,1955,Brazil,55.47,130,140,145,145,70,75,77.5,77.5,145,147.5,150,150,372.5,57,Masters 2,SBD,F,Single-ply
3,Jeannette Gevers,1962,Australia,56.5,140,147.5,150,150,82.5,85,-87.5,85,130,132.5,-140,132.5,367.5,57,Masters 2,SBD,F,Single-ply
4,Helen Allen,1961,Australia,56.37,107.5,115,-120,115,62.5,65,67.5,67.5,147.5,157.5,163,163,345.5,57,Masters 2,SBD,F,Single-ply
5,Lydie Grouet Molling,1960,France,56.18,-105,105,110,110,70,75,-80,75,122.5,130,-135,130,315,57,Masters 2,SBD,F,Single-ply
DQ,Monica Sobotka,1958,USA,56.62,-102.5,-102.5,-102.5,,67.5,72.5,-75,72.5,135,145,152.5,152.5,,57,Masters 2,SBD,F,Single-ply
1,Riitta Sundvall Liimatainen,1963,Sweden,61.03,160,-172.5,180,180,100,107.5,114,114,160,170,-175.5,170,464,63,Masters 2,SBD,F,Single-ply
2,Daisy Blondan,1959,France,62.4,117.5,122.5,127.5,127.5,77.5,82.5,-85,82.5,135,142.5,-145,142.5,352.5,63,Masters 2,SBD,F,Single-ply
3,Wing-Yuk Ip,1961,Hong Kong,60.14,112.5,120,-125,120,72.5,-82.5,85,85,110,135,-142.5,135,340,63,Masters 2,SBD,F,Single-ply
1,Donna Marts,1960,USA,70.11,-152.5,152.5,160,160,105,107.5,-110,107.5,157.5,167.5,175,175,442.5,72,Masters 2,SBD,F,Single-ply
2,Chandra Armstead,1961,USA,70.41,-100,100,105,105,67.5,72.5,77.5,77.5,112.5,122.5,132.5,132.5,315,72,Masters 2,SBD,F,Single-ply
1,Jackie Blasbery,1963,UK,83.59,150,160,170,170,100,110,115,115,175,190,-195,190,475,84,Masters 2,SBD,F,Single-ply
2,Hana Takáčová,1954,Czechia,83.64,160,-170,170,170,130,140,145,145,145,160,-170,160,475,84,Masters 2,SBD,F,Single-ply
3,Joanne Swing,1958,Canada,80.5,107.5,115,125,125,67.5,-77.5,-77.5,67.5,115,125,130,130,322.5,84,Masters 2,SBD,F,Single-ply
1,Jean Maton,1963,UK,84.78,160,172.5,-180,172.5,100,110,117.5,117.5,170,180,187.5,187.5,477.5,84+,Masters 2,SBD,F,Single-ply
2,Malinda Baum,1963,USA,100.84,155,-162.5,-162.5,155,107.5,-115,115,115,140,150,-160,150,420,84+,Masters 2,SBD,F,Single-ply
1,Susan Elwyn,1947,USA,47.03,70,-97.5,97.5,97.5,35,45,-47.5,45,100,115,-120,115,257.5,52,Masters 3,SBD,F,Single-ply
2,Denise Johnson,1947,USA,49.74,40,47.5,52.5,52.5,30,35,-37.5,35,72.5,80,-85,80,167.5,52,Masters 3,SBD,F,Single-ply
1,Janet Warne,1952,Canada,55.86,110,117.5,122.5,122.5,60,65,67.5,67.5,107.5,115,-120,115,305,57,Masters 3,SBD,F,Single-ply
DQ,Hatsuko Kimura,1951,Japan,53.38,-140,-140,-140,,50,60,,60,150,170,-175,170,,57,Masters 3,SBD,F,Single-ply
1,Hisako Hayashi,1951,Japan,57.03,-125,-125,125,125,75,-80,80,80,130,-140,-140,130,335,63,Masters 3,SBD,F,Single-ply
2,Anne Kemmerer,1953,USA,60.88,102.5,112.5,-115,112.5,62.5,67.5,-70,67.5,130,142.5,-157.5,142.5,322.5,63,Masters 3,SBD,F,Single-ply
3,Helen White,1945,USA,60.04,92.5,97.5,100,100,65,70,-72.5,70,110,120,122.5,122.5,292.5,63,Masters 3,SBD,F,Single-ply
4,Carol Brady,1950,Canada,61.37,102.5,112.5,-117.5,112.5,52.5,57.5,-62.5,57.5,102.5,110,-115,110,280,63,Masters 3,SBD,F,Single-ply
1,Gail Moore,1947,USA,70.78,130,140,145,145,85,-90,90,90,135,145,-160,145,380,72,Masters 3,SBD,F,Single-ply
2,Rita Carlsson,1952,USA,64.77,-127.5,127.5,132.5,132.5,60,65,-70,65,-147.5,147.5,-160,147.5,345,72,Masters 3,SBD,F,Single-ply
3,Linda Rousseau,1953,Canada,70.97,110,-120,-122.5,110,75,80,-85,80,100,110,-120,110,300,72,Masters 3,SBD,F,Single-ply
1,Mary Lupton,1951,Canada,90.95,100,105,-115,105,-67.5,67.5,-72.5,67.5,112.5,120,-125,120,292.5,84+,Masters 3,SBD,F,Single-ply
1,Marie Laurence,1942,USA,50.97,42.5,50,62.5,62.5,-30,30,-35,30,75,85,-87.5,85,177.5,52,Masters 4,SBD,F,Single-ply
1,Faith Ireland,1942,USA,62,-105,105,-110,105,60,62.5,65,65,115,125,127.5,127.5,297.5,63,Masters 4,SBD,F,Single-ply
1,Regina Hackney,1939,USA,81.1,-102.5,102.5,105,105,67.5,75,-77.5,75,120,122.5,-125,122.5,302.5,84,Masters 4,SBD,F,Single-ply
