Name,WeightClassKg,Division,Sex,AgeRange,Best3SquatKg,Best3BenchKg,Best3DeadliftKg,TotalKg,Event,Equipment,Place
C. Young,52,Teen 14-15,M,14-15,72.57,36.29,79.38,188.24,SBD,Single-ply,1
K. Harris,52,Teen 14-15,M,14-15,65.77,38.56,74.84,179.17,SBD,Single-ply,2
R. Sikorski,52,Teen 14-15,M,14-15,,,,,SBD,Single-ply,DQ
Mike Thompson #1,56,Teen 14-15,M,14-15,142.88,79.38,165.56,387.82,SBD,Single-ply,1
Greg Campbell,56,Teen 14-15,M,14-15,136.08,88.45,149.69,374.21,SBD,Single-ply,2
A. Crishin,60,Teen 14-15,M,14-15,104.33,70.31,113.4,288.03,SBD,Single-ply,1
D. Henderson,67.5,Teen 14-15,M,14-15,124.74,92.99,151.95,369.68,SBD,Single-ply,1
R. Davis,67.5,Teen 14-15,M,14-15,104.33,72.57,102.06,278.96,SBD,Single-ply,2
S. Espy,75,Teen 14-15,M,14-15,154.22,108.86,192.78,455.86,SBD,Single-ply,1
C. Church,75,Teen 14-15,M,14-15,104.33,72.57,142.88,319.78,SBD,Single-ply,2
S. Jarvis,82.5,Teen 14-15,M,14-15,181.44,97.52,204.12,483.08,SBD,Single-ply,1
K. Jones,82.5,Teen 14-15,M,14-15,133.81,79.38,147.42,360.61,SBD,Single-ply,2
M. Jones,100,Teen 14-15,M,14-15,127.01,83.91,147.42,358.34,SBD,Single-ply,1
K. Jones,100,Teen 14-15,M,14-15,,,,,SBD,Single-ply,DQ
Tex Springfield,110,Teen 14-15,M,14-15,231.33,131.54,204.12,566.99,SBD,Single-ply,1
M. Carpenter,110,Teen 14-15,M,14-15,145.15,113.4,195.04,453.59,SBD,Single-ply,2
T. Spearman,52,Teen 16-17,M,16-17,88.45,79.38,113.4,281.23,SBD,Single-ply,1
G. Dennis,52,Teen 16-17,M,16-17,136.08,,,,SBD,Single-ply,DQ
T. Rupert,56,Teen 16-17,M,16-17,136.08,65.77,136.08,337.93,SBD,Single-ply,1
Greg Glover,60,Teen 16-17,M,16-17,183.71,108.86,188.24,480.81,SBD,Single-ply,1
R. Casalino,60,Teen 16-17,M,16-17,131.54,95.25,156.49,383.29,SBD,Single-ply,2
D. Burnett,60,Teen 16-17,M,16-17,131.54,83.91,151.95,367.41,SBD,Single-ply,3
M. Ferrell,67.5,Teen 16-17,M,16-17,142.88,108.86,167.83,419.57,SBD,Single-ply,1
E. Howell,67.5,Teen 16-17,M,16-17,120.2,90.72,174.63,385.55,SBD,Single-ply,2
Jeff Broughton,75,Teen 16-17,M,16-17,170.1,140.61,204.12,514.83,SBD,Single-ply,1
P. Roberts,75,Teen 16-17,M,16-17,188.24,108.86,185.97,483.08,SBD,Single-ply,2
J. Dukes,75,Teen 16-17,M,16-17,156.49,115.67,201.85,474,SBD,Single-ply,3
J. Jones,75,Teen 16-17,M,16-17,149.69,108.86,195.04,453.59,SBD,Single-ply,4
A. Neal,75,Teen 16-17,M,16-17,163.29,102.06,172.37,437.72,SBD,Single-ply,5
C. Massey Jr,82.5,Teen 16-17,M,16-17,172.37,117.93,208.65,498.95,SBD,Single-ply,1
Steve Kemps,90,Teen 16-17,M,16-17,161.03,120.2,219.99,501.22,SBD,Single-ply,1
E. Jordan,90,Teen 16-17,M,16-17,158.76,117.93,213.19,489.88,SBD,Single-ply,2
N. Edgar,90,Teen 16-17,M,16-17,147.42,111.13,192.78,451.32,SBD,Single-ply,3
T. Corbin,100,Teen 16-17,M,16-17,199.58,113.4,201.85,514.83,SBD,Single-ply,1
J. Ashworth,100,Teen 16-17,M,16-17,181.44,106.59,215.46,503.49,SBD,Single-ply,2
R. Tatum,100,Teen 16-17,M,16-17,,,,,SBD,Single-ply,DQ
C. Woodward,110,Teen 16-17,M,16-17,158.76,108.86,192.78,460.4,SBD,Single-ply,1
C. Wood,125,Teen 16-17,M,16-17,165.56,90.72,197.31,453.59,SBD,Single-ply,1
C. Summer,60,Teen 18-19,M,18-19,158.76,90.72,149.69,399.16,SBD,Single-ply,1
L. Twitty,60,Teen 18-19,M,18-19,,,,,SBD,Single-ply,DQ
T. Hutson,67.5,Teen 18-19,M,18-19,158.76,122.47,172.37,453.59,SBD,Single-ply,1
P. Adams,67.5,Teen 18-19,M,18-19,151.95,99.79,188.24,439.99,SBD,Single-ply,2
T. Creig,67.5,Teen 18-19,M,18-19,140.61,92.99,181.44,415.04,SBD,Single-ply,3
M. Niemver,67.5,Teen 18-19,M,18-19,102.06,102.06,158.76,362.87,SBD,Single-ply,4
M. Clay,67.5,Teen 18-19,M,18-19,113.4,99.79,147.42,360.61,SBD,Single-ply,5
Tim Reeves,75,Teen 18-19,M,18-19,199.58,124.74,226.8,551.12,SBD,Single-ply,1
C. Johnson,75,Teen 18-19,M,18-19,199.58,108.86,206.38,514.83,SBD,Single-ply,2
G. Taitague,75,Teen 18-19,M,18-19,183.71,102.06,201.85,487.61,SBD,Single-ply,3
M. Collins,75,Teen 18-19,M,18-19,136.08,106.59,181.44,424.11,SBD,Single-ply,4
B. Totti,82.5,Teen 18-19,M,18-19,201.85,136.08,219.99,557.92,SBD,Single-ply,1
R. Olsen,82.5,Teen 18-19,M,18-19,204.12,129.27,206.38,539.78,SBD,Single-ply,2
J. McMahon,82.5,Teen 18-19,M,18-19,183.71,138.35,215.46,537.51,SBD,Single-ply,3
M. Tully,82.5,Teen 18-19,M,18-19,199.58,113.4,204.12,517.1,SBD,Single-ply,4
B. Dameron,82.5,Teen 18-19,M,18-19,204.12,102.06,185.97,492.15,SBD,Single-ply,5
L. Frye,82.5,Teen 18-19,M,18-19,158.76,97.52,210.92,467.2,SBD,Single-ply,6
Steve Holland,90,Teen 18-19,M,18-19,229.06,127.01,283.5,639.57,SBD,Single-ply,1
M. Smith #38,90,Teen 18-19,M,18-19,222.26,127.01,238.14,587.4,SBD,Single-ply,2
M. Cornelison,90,Teen 18-19,M,18-19,199.58,140.61,226.8,566.99,SBD,Single-ply,3
M. Wix,90,Teen 18-19,M,18-19,183.71,129.27,215.46,528.44,SBD,Single-ply,4
C. Garland,90,Teen 18-19,M,18-19,201.85,115.67,204.12,521.63,SBD,Single-ply,5
C. Stephens,90,Teen 18-19,M,18-19,167.83,102.06,149.69,419.57,SBD,Single-ply,6
T. Holland,100,Teen 18-19,M,18-19,170.1,138.35,136.08,444.52,SBD,Single-ply,1
Jackie Pardue,110,Teen 18-19,M,18-19,240.4,151.95,226.8,619.15,SBD,Single-ply,1
T. Hutson,110,Teen 18-19,M,18-19,226.8,151.95,226.8,605.55,SBD,Single-ply,2
S. Stathopoulous,110,Teen 18-19,M,18-19,217.72,138.35,238.14,594.21,SBD,Single-ply,3
R. Walsh,110,Teen 18-19,M,18-19,215.46,133.81,231.33,580.6,SBD,Single-ply,4
G. Crow,125+,Teen 18-19,M,18-19,290.3,197.31,260.82,748.43,SBD,Single-ply,1
